Índice Valor Importancia - Paul Efren...
…
tail(data)
## # A tibble: 6 x 4
##   parcela especies                  dap a_basal
##   <chr>   <chr>                   <dbl>   <dbl>
## 1 9       Zanthoxylum.ekmanii      23.1   2737.
## 2 9       Zanthoxylum.juniperinum  35.6   2043.
## 3 9       Zanthoxylum.panamense    54.0    886.
## 4 9       Zanthoxylum.panamense    32.0    899.
## 5 9       Zanthoxylum.panamense    35.3   2331.
## 6 9       Zanthoxylum.panamense    19.2   2853.

Si buscamos conocer cuáles son las observaciones que corresponden a la sub parcela número 1 podemos hacerlo con el siguiente código:

data[which(data$parcela == 1),]
## # A tibble: 448 x 4
##    parcela especies                  dap a_basal
##    <chr>   <chr>                   <dbl>   <dbl>
##  1 1       Alchornea.costaricensis  50.6    666.
##  2 1       Alchornea.costaricensis  54.5    320.
##  3 1       Alseis.blackiana         19.9   1465.
##  4 1       Alseis.blackiana         31.6   2446.
##  5 1       Alseis.blackiana         49.1    376.
##  6 1       Alseis.blackiana         12.4   1751.
##  7 1       Alseis.blackiana         47.7   2652.
##  8 1       Alseis.blackiana         42.7    817.
##  9 1       Alseis.blackiana         25.7   1424.
## 10 1       Alseis.blackiana         27.2   1444.
## # ... with 438 more rows

Podemos conseguir el mismo resultado con la función filter() del paquete dplyr:

data %>% filter(parcela == 1)
## # A tibble: 448 x 4
##    parcela especies                  dap a_basal
##    <chr>   <chr>                   <dbl>   <dbl>
##  1 1       Alchornea.costaricensis  50.6    666.
##  2 1       Alchornea.costaricensis  54.5    320.
##  3 1       Alseis.blackiana         19.9   1465.
##  4 1       Alseis.blackiana         31.6   2446.
##  5 1       Alseis.blackiana         49.1    376.
##  6 1       Alseis.blackiana         12.4   1751.
##  7 1       Alseis.blackiana         47.7   2652.
##  8 1       Alseis.blackiana         42.7    817.
##  9 1       Alseis.blackiana         25.7   1424.
## 10 1       Alseis.blackiana         27.2   1444.
## # ... with 438 more rows
…
