Curvas de acumulación de especies - Paul Efren...
…
tidyverse - ggplot2

Podemos producir un gráfico de calidad con la ayuda de las funciones del paquete ggplot2–Elegant Graphics for Data Analysis. Para cumplir esta tarea es necesario construir una base de datos nueva recuperando información resultante de la función speccacum(), estos resultados serán asignados como curva.

curva <- data_frame(parcela = curva$sites,
                    riqueza = curva$richness,
                    des_sta = curva$sd) 
curva
## # A tibble: 50 x 3
##    parcela riqueza des_sta
##      <int>   <dbl>   <dbl>
##  1       1    90.8    6.93
##  2       2   122.     7.19
##  3       3   139.     7.00
##  4       4   151.     6.64
##  5       5   159.     6.25
##  6       6   166.     5.89
##  7       7   171.     5.59
##  8       8   176.     5.34
##  9       9   179.     5.13
## 10      10   183.     4.95
## # ... with 40 more rows
…
